2016/06/01 * guld pre-founding contributions
    jostber:Assets                              100 GULD
    jostber:Income:guld                        -100 GULD
    guld:Liabilities                         -100 GULD
    guld:Equity:jostber                          100 GULD
